<?xml version="1.0" encoding="UTF-8"?>
<svg height="128px" viewBox="0 0 128 128" width="128px" xmlns="http://www.w3.org/2000/svg">
    <path d="m 28 12 h 72 c 8.835938 0 16 7.164062 16 16 v 72 c 0 8.835938 -7.164062 16 -16 16 h -72 c -8.835938 0 -16 -7.164062 -16 -16 v -72 c 0 -8.835938 7.164062 -16 16 -16 z m 0 0" fill="#0082c9"/>
    <path d="m 64.058594 46.246094 c -8.332032 0 -15.332032 5.707031 -17.46875 13.382812 c -1.867188 -4.105468 -5.976563 -7.015625 -10.75 -7.015625 c -6.496094 0.003907 -11.839844 5.34375 -11.839844 11.84375 s 5.34375 11.839844 11.839844 11.84375 c 4.773437 -0.003906 8.878906 -2.914062 10.746094 -7.019531 c 2.136718 7.675781 9.140624 13.386719 17.476562 13.386719 c 8.289062 0 15.25 -5.644531 17.433594 -13.257813 c 1.898437 4.03125 5.941406 6.886719 10.660156 6.890625 c 6.5 0 11.84375 -5.34375 11.84375 -11.847656 c 0 -6.5 -5.34375 -11.839844 -11.84375 -11.839844 c -4.71875 0 -8.765625 2.859375 -10.660156 6.890625 c -2.183594 -7.613281 -9.144532 -13.257812 -17.433594 -13.257812 z m 0 6.949218 c 2.992187 -0.011718 5.863281 1.167969 7.980468 3.285157 c 2.113282 2.113281 3.292969 4.984375 3.28125 7.976562 c 0 6.257813 -5 11.257813 -11.261718 11.257813 c -2.988282 0.015625 -5.859375 -1.167969 -7.972656 -3.28125 c -2.117188 -2.117188 -3.296876 -4.988282 -3.28125 -7.976563 c 0 -6.261719 5 -11.257812 11.257812 -11.261719 z m -28.21875 6.371094 c 2.742187 0 4.890625 2.144532 4.890625 4.886719 c 0 2.746094 -2.144531 4.894531 -4.890625 4.894531 c -2.742188 0 -4.886719 -2.148437 -4.886719 -4.894531 c 0 -2.742187 2.148437 -4.886719 4.890625 -4.886719 z m 56.316406 0 c 2.742188 0 4.890625 2.144532 4.890625 4.886719 c 0 2.746094 -2.148437 4.894531 -4.890625 4.894531 s -4.890625 -2.148437 -4.890625 -4.894531 c 0 -2.742187 2.148437 -4.886719 4.890625 -4.886719 z m 0 0" fill="#ffffff"/>
</svg>
