<?xml version="1.0" encoding="UTF-8" standalone="no"?>
<svg
   height="64"
   viewBox="0 0 64 64"
   width="64"
   version="1.1"
   id="svg2"
   sodipodi:docname="feed-service-inoreader-symbolic.svg"
   inkscape:version="1.3 (0e150ed6c4, 2023-07-21)"
   xmlns:inkscape="http://www.inkscape.org/namespaces/inkscape"
   xmlns:sodipodi="http://sodipodi.sourceforge.net/DTD/sodipodi-0.dtd"
   xmlns="http://www.w3.org/2000/svg"
   xmlns:svg="http://www.w3.org/2000/svg">
  <defs
     id="defs2" />
  <path
     d="m 20.148199,0 c -0.810918,0 -2.058485,0.01557903 -2.058485,0.01557903 0.01561,2.30572507 0.01561,4.61145087 0,6.27842937 2.838216,-0.1246339 5.723212,0.062317 8.592615,0.5920126 18.432793,3.380692 31.45427,20.034886 30.580973,38.620905 h 6.690074 C 64.514781,33.433027 59.992355,21.483757 51.134633,12.68149 44.117069,5.7175779 35.773971,1.6046615 25.715463,0.18695074 24.81098,0.06231691 22.877252,0 20.148199,0 Z m -1.450295,13.818777 c -0.218326,0 -0.436648,0.01559 -0.654975,0.01559 0.06238,2.882156 0.06238,4.938614 0.03118,6.808122 h 1.076025 c 2.417161,0 3.758293,0.155794 5.910347,0.701068 6.78364,1.698135 12.553637,6.387482 15.65696,12.728229 1.559458,3.178163 2.339185,6.309587 2.432754,9.892807 0.01557,0.514118 0.01557,1.028231 0,1.542345 2.15205,0 4.569211,0 6.814831,-0.01555 0.01557,-1.589079 -0.03114,-3.489747 -0.124756,-4.299867 C 49.247689,36.221706 47.65704,31.812787 45.005963,27.762183 40.483533,20.860588 33.403595,16.062186 25.387978,14.426364 23.17355,13.990149 20.92793,13.787616 18.697904,13.818777 Z m 0,0"
     id="path1"
     style="fill:#bebebe;fill-opacity:1;stroke-width:3.99024" />
  <path
     d="M 17.029283,63.983893 C 16.218364,63.906002 15.391853,63.796962 14.768069,63.672288 8.3431019,62.42597 3.0253468,57.736623 0.93567487,51.473771 0.28070246,49.526369 0,47.781495 0,45.647142 0,44.073637 0.10916227,43.04541 0.42105469,41.612121 1.9181345,34.850733 7.1423162,29.444744 13.816801,27.777766 c 1.372323,-0.342745 2.479535,-0.482957 3.992213,-0.529696 2.994159,-0.07789 5.754399,0.529696 8.42107,1.822773 6.580915,3.209319 10.635506,10.09534 10.261236,17.433153 -0.109163,2.134358 -0.499027,3.972705 -1.26316,5.888951 -1.185188,3.00679 -3.087729,5.592944 -5.567265,7.602663 -2.682272,2.149932 -5.847969,3.489748 -9.278776,3.894806 -0.60819,0.07789 -2.85381,0.140228 -3.352836,0.09349 z m 7.79729,-18.586019 c 1.684215,-0.436222 3.056538,-1.713717 3.617943,-3.365113 0.935675,-2.710788 -0.483433,-5.702 -3.165701,-6.652332 -2.510726,-0.888019 -5.224182,0.202529 -6.409374,2.601728 -0.764133,1.511189 -0.764133,3.131428 0,4.673773 0.717353,1.464445 1.980513,2.445938 3.617943,2.804257 0.623783,0.140228 1.699812,0.10904 2.339189,-0.0623 z m 0,0"
     id="path2"
     style="fill:#bebebe;fill-opacity:1;stroke-width:3.99024" />
</svg>
