<?xml version="1.0" encoding="UTF-8" standalone="no"?>
<svg
   height="64"
   viewBox="0 0 64 64"
   width="64"
   version="1.1"
   id="svg3"
   sodipodi:docname="feed-service-local-symbolic.svg"
   inkscape:version="1.3 (0e150ed6c4, 2023-07-21)"
   xmlns:inkscape="http://www.inkscape.org/namespaces/inkscape"
   xmlns:sodipodi="http://sodipodi.sourceforge.net/DTD/sodipodi-0.dtd"
   xmlns="http://www.w3.org/2000/svg"
   xmlns:svg="http://www.w3.org/2000/svg">
  <defs
     id="defs3" />
  <path
     d="m 6,20 c -3.3125,0 -6,2.6875 -6,6 0,3.3125 2.6875,6 6,6 14.4375,0 26,11.5625 26,26 0,3.3125 2.6875,6 6,6 3.3125,0 6,-2.6875 6,-6 C 44,37.078124 26.921876,20 6,20 Z m 0,0"
     id="path1"
     style="fill:#bebebe;fill-opacity:1;stroke-width:4" />
  <path
     d="M 6,0 C 2.6875,0 0,2.6875 0,6 c 0,3.3125 2.6875,6 6,6 25.468752,0 46,20.531248 46,46 0,3.3125 2.6875,6 6,6 3.3125,0 6,-2.6875 6,-6 C 64,26.031248 37.968752,0 6,0 Z m 0,0"
     id="path2"
     style="fill:#bebebe;fill-opacity:1;stroke-width:4" />
  <path
     d="M 21.984376,53 C 21.984376,59.078124 17.0625,64 11,64 4.921876,64 0,59.078124 0,53 0,46.9375 4.921876,42.015624 11,42.015624 17.0625,42.015624 21.984376,46.9375 21.984376,53 Z m 0,0"
     id="path3"
     style="fill:#bebebe;fill-opacity:1;stroke-width:4" />
</svg>
